uartProtocolImplementation/uartProtocolImplementation.sim/sim_1/behav/xsim/uart_top_waveform.vcd
$date
   Sat Apr 12 16:52:32 2025
$end

$version
  2024.2.0
  $dumpfile ("uart_top_waveform.vcd") 
$end

$timescale
  1ps
$end

$scope module uart_top_tb $end
$var reg 1 ! clk $end
$var reg 1 " reset $end
$var reg 1 # rx $end
$var reg 1 $ send $end
$var wire 1 % tx $end
$var wire 8 & led [7:0] $end
$var wire 1 ' data_valid_led $end
$var reg 8 ( test_data [7:0] $end
$var integer 32 ) i [31:0] $end
$var wire 1 * send_deb $end
$var wire 8 + rx_data [7:0] $end
$var wire 1 , rx_data_valid $end
$var wire 1 - busy $end
$scope module uut $end
$var wire 1 . clk $end
$var wire 1 / reset $end
$var wire 1 0 rx $end
$var wire 1 1 send $end
$var wire 1 % tx $end
$var wire 8 & led [7:0] $end
$var wire 1 ' data_valid_led $end
$var wire 8 2 rx_data [7:0] $end
$var wire 1 3 rx_data_valid $end
$var reg 8 4 tx_data [7:0] $end
$var wire 1 5 busy $end
$var wire 1 6 send_deb $end
$scope module debounce_inst $end
$var wire 1 1 switchIn $end
$var wire 1 . clk $end
$var wire 1 7 reset $end
$var wire 1 6 debounceout $end
$var wire 1 8 beat $end
$var reg 3 9 pipeline [2:0] $end
$scope module clockdividerHB_inst $end
$var wire 1 . clk $end
$var wire 1 : enable $end
$var wire 1 7 reset $end
$var reg 1 ; dividedClk $end
$var wire 1 8 beat $end
$var reg 32 < counter [31:0] $end
$upscope $end
$upscope $end
$scope module uart_receiver $end
$var wire 1 . clk $end
$var wire 1 / reset $end
$var wire 1 0 rx $end
$var reg 8 = data [7:0] $end
$var reg 1 > data_valid $end
$var reg 4 ? bit_index [3:0] $end
$var reg 16 @ clk_counter [15:0] $end
$var reg 8 A data_reg [7:0] $end
$var reg 3 B current_state [2:0] $end
$var reg 3 C next_state [2:0] $end
$upscope $end
$scope module uart_transmitter $end
$var wire 1 . clk $end
$var wire 1 / reset $end
$var wire 8 D data_in [7:0] $end
$var wire 1 6 send $end
$var reg 1 E tx $end
$var reg 1 F busy $end
$var wire 1 G beat $end
$var reg 2 H current_state [1:0] $end
$var reg 2 I next_state [1:0] $end
$var reg 3 J bit_count [2:0] $end
$var reg 8 K data_reg [7:0] $end
$scope module baud_gen $end
$var wire 1 . clk $end
$var wire 1 L enable $end
$var wire 1 / reset $end
$var reg 1 M dividedClk $end
$var wire 1 G beat $end
$var reg 32 N counter [31:0] $end
$upscope $end
$upscope $end
$upscope $end
$scope task uart_send_byte $end
$var reg 8 O data [7:0] $end
$upscope $end
$upscope $end
$enddefinitions $end

#0
$dumpvars
0!
1"
1#
0$
1%
b0 &
0'
b0 (
bx )
x*
b0 +
0,
0-
0.
1/
10
01
b0 2
03
b0 4
05
x6
07
x8
bx 9
1:
x;
bx <
b0 =
0>
b0 ?
b0 @
b0 A
b0 B
b0 C
b0 D
1E
0F
xG
b0 H
b0 I
b0 J
b0 K
1L
xM
bx N
bx O
$end

#5000
1!
1.
0G
0M
b0 N

#10000
0!
0.

#15000
1!
1.

#20000
0!
0.

#25000
1!
1.

#30000
0!
0.

#35000
1!
1.

#40000
0!
0.

#45000
1!
1.

#50000
0!
0.

#55000
1!
1.

#60000
0!
0.

#65000
1!
1.

#70000
0!
0.

#75000
1!
1.

#80000
0!
0.

#85000
1!
1.

#90000
0!
0.

#95000
1!
1.

#100000
0!
0"
0.
0/

#105000
1!
1.
b1 N

#110000
0!
0.

#115000
1!
1.
b10 N

#120000
0!
0.

#125000
1!
1.
b11 N

#130000
0!
0.

#135000
1!
1.
b100 N

#140000
0!
0.

#145000
1!
1.
b101 N

#150000
0!
0.

#155000
1!
1.
b110 N

#160000
0!
0.

#165000
1!
1.
b111 N

#170000
0!
0.

#175000
1!
1.
b1000 N

#180000
0!
0.

#185000
1!
1.
b1001 N

#190000
0!
0.

#195000
1!
1.
b1010 N

#200000
0!
0#
b1010101 (
0.
00
b1 C
b1010101 O

#205000
1!
1.
b1 B
b1011 N

#210000
0!
0.

#215000
1!
1.
b1 @
b1100 N

#220000
0!
0.

#225000
1!
1.
b10 @
b1101 N

#230000
0!
0.

#235000
1!
1.
b11 @
b1110 N

#240000
0!
0.

#245000
1!
1.
b100 @
b1111 N

#250000
0!
0.

#255000
1!
1.
b101 @
b10000 N

#260000
0!
0.

#265000
1!
1.
b110 @
b10001 N

#270000
0!
0.

#275000
1!
1.
b111 @
b10010 N

#280000
0!
0.

#285000
1!
1.
b1000 @
b10011 N

#290000
0!
0.

#295000
1!
1.
b1001 @
b10100 N

#300000
0!
0.

#305000
1!
1.
b1010 @
b10101 N

#310000
0!
0.

#315000
1!
1.
b1011 @
b10110 N

#320000
0!
0.

#325000
1!
1.
b1100 @
b10111 N

#330000
0!
0.

#335000
1!
1.
b1101 @
b11000 N

#340000
0!
0.

#345000
1!
1.
b1110 @
b11001 N

#350000
0!
0.

#355000
1!
1.
b1111 @
b11010 N

#360000
0!
0.

#365000
1!
1.
b10000 @
b11011 N

#370000
0!
0.

#375000
1!
1.
b10001 @
b11100 N

#380000
0!
0.

#385000
1!
1.
b10010 @
b11101 N

#390000
0!
0.

#395000
1!
1.
b10011 @
b11110 N

#400000
0!
0.

#405000
1!
1.
b10100 @
b11111 N

#410000
0!
0.

#415000
1!
1.
b10101 @
b100000 N

#420000
0!
0.

#425000
1!
1.
b10110 @
b100001 N

#430000
0!
0.

#435000
1!
1.
b10111 @
b100010 N

#440000
0!
0.

#445000
1!
1.
b11000 @
b100011 N

#450000
0!
0.

#455000
1!
1.
b11001 @
b100100 N

#460000
0!
0.

#465000
1!
1.
b11010 @
b100101 N

#470000
0!
0.

#475000
1!
1.
b11011 @
b100110 N

#480000
0!
0.

#485000
1!
1.
b11100 @
b100111 N

#490000
0!
0.

#495000
1!
1.
b11101 @
b101000 N

#500000
0!
0.

#505000
1!
1.
b11110 @
b101001 N

#510000
0!
0.

#515000
1!
1.
b11111 @
b101010 N

#520000
0!
0.

#525000
1!
1.
b100000 @
b101011 N

#530000
0!
0.

#535000
1!
1.
b100001 @
b101100 N

#540000
0!
0.

#545000
1!
1.
b100010 @
b101101 N

#550000
0!
0.

#555000
1!
1.
b100011 @
b101110 N

#560000
0!
0.

#565000
1!
1.
b100100 @
b101111 N

#570000
0!
0.

#575000
1!
1.
b100101 @
b110000 N

#580000
0!
0.

#585000
1!
1.
b100110 @
b110001 N

#590000
0!
0.

#595000
1!
1.
b100111 @
b110010 N

#600000
0!
0.

#605000
1!
1.
b101000 @
b110011 N

#610000
0!
0.

#615000
1!
1.
b101001 @
b110100 N

#620000
0!
0.

#625000
1!
1.
b101010 @
b110101 N

#630000
0!
0.

#635000
1!
1.
b101011 @
b110110 N

#640000
0!
0.

#645000
1!
1.
b101100 @
b110111 N

#650000
0!
0.

#655000
1!
1.
b101101 @
b111000 N

#660000
0!
0.

#665000
1!
1.
b101110 @
b111001 N

#670000
0!
0.

#675000
1!
1.
b101111 @
b111010 N

#680000
0!
0.

#685000
1!
1.
b110000 @
b111011 N

#690000
0!
0.

#695000
1!
1.
b110001 @
b111100 N

#700000
0!
0.

#705000
1!
1.
b110010 @
b111101 N

#710000
0!
0.

#715000
1!
1.
b110011 @
b111110 N

#720000
0!
0.

#725000
1!
1.
b110100 @
b111111 N

#730000
0!
0.

#735000
1!
1.
b110101 @
b1000000 N

#740000
0!
0.

#745000
1!
1.
b110110 @
b1000001 N

#750000
0!
0.

#755000
1!
1.
b110111 @
b1000010 N

#760000
0!
0.

#765000
1!
1.
b111000 @
b1000011 N

#770000
0!
0.

#775000
1!
1.
b111001 @
b1000100 N

#780000
0!
0.

#785000
1!
1.
b111010 @
b1000101 N

#790000
0!
0.

#795000
1!
1.
b111011 @
b1000110 N

#800000
0!
0.

#805000
1!
1.
b111100 @
b1000111 N

#810000
0!
0.

#815000
1!
1.
b111101 @
b1001000 N

#820000
0!
0.

#825000
1!
1.
b111110 @
b1001001 N

#830000
0!
0.

#835000
1!
1.
b111111 @
b1001010 N

#840000
0!
0.

#845000
1!
1.
b1000000 @
b1001011 N

#850000
0!
0.

#855000
1!
1.
b1000001 @
b1001100 N

#860000
0!
0.

#865000
1!
1.
b1000010 @
b1001101 N

#870000
0!
0.

#875000
1!
1.
b1000011 @
b1001110 N

#880000
0!
0.

#885000
1!
1.
b1000100 @
b1001111 N

#890000
0!
0.

#895000
1!
1.
b1000101 @
b1010000 N

#900000
0!
0.

#905000
1!
1.
b1000110 @
b1010001 N

#910000
0!
0.

#915000
1!
1.
b1000111 @
b1010010 N

#920000
0!
0.

#925000
1!
1.
b1001000 @
b1010011 N

#930000
0!
0.

#935000
1!
1.
b1001001 @
b1010100 N

#940000
0!
0.

#945000
1!
1.
b1001010 @
b1010101 N

#950000
0!
0.

#955000
1!
1.
b1001011 @
b1010110 N

#960000
0!
0.

#965000
1!
1.
b1001100 @
b1010111 N

#970000
0!
0.

#975000
1!
1.
b1001101 @
b1011000 N

#980000
0!
0.

#985000
1!
1.
b1001110 @
b1011001 N

#990000
0!
0.

#995000
1!
1.
b1001111 @
b1011010 N

