uart_rx/uart_rx.sim/sim_1/behav/xsim/uart_rx_tb.vcd
$date
   Sat Apr 12 15:41:24 2025
$end

$version
  2024.2.0
  $dumpfile ("uart_rx_tb.vcd") 
$end

$timescale
  1ps
$end

$scope module uart_rx_tb $end
$var reg 1 ! clk $end
$var reg 1 " reset $end
$var reg 1 # rx $end
$var wire 8 $ data_out [7:0] $end
$var wire 1 % data_ready $end
$var wire 1 & framing_error $end
$scope module uut $end
$var wire 1 ' clk $end
$var wire 1 ( reset $end
$var wire 1 ) rx $end
$var reg 8 * data_out [7:0] $end
$var reg 1 + data_ready $end
$var reg 1 , framing_error $end
$var reg 1 - rx_sync1 $end
$var reg 1 . rx_sync2 $end
$var reg 1 / rx_sync3 $end
$var wire 1 0 rx_falling_edge $end
$var wire 1 1 beat $end
$var reg 1 2 baud_enable $end
$var reg 3 3 state [2:0] $end
$var reg 3 4 bit_count [2:0] $end
$var reg 8 5 rx_data [7:0] $end
$var reg 8 6 half_bit_counter [7:0] $end
$var wire 1 7 half_bit_elapsed $end
$scope module baud_gen $end
$var wire 1 ' clk $end
$var wire 1 8 enable $end
$var wire 1 ( reset $end
$var reg 1 9 dividedClk $end
$var wire 1 1 beat $end
$var reg 32 : counter [31:0] $end
$upscope $end
$upscope $end
$scope task send_byte $end
$var reg 8 ; data [7:0] $end
$var integer 32 < i [31:0] $end
$upscope $end
$scope task send_byte_with_framing_error $end
$var reg 8 = data [7:0] $end
$var integer 32 > i [31:0] $end
$upscope $end
$scope task wait_for_data_ready $end
$upscope $end
$scope task check_result $end
$var reg 8 ? expected_data [7:0] $end
$var reg 1 @ expected_error $end
$upscope $end
$upscope $end
$enddefinitions $end

#0
$dumpvars
0!
1"
1#
b0 $
0%
0&
0'
1(
1)
b0 *
0+
0,
1-
1.
1/
00
x1
02
b0 3
b0 4
b0 5
b0 6
07
08
x9
bx :
bx ;
bx <
bx =
bx >
bx ?
x@
$end

#5000
1!
1'
01
09
b0 :

#10000
0!
0'

#15000
1!
1'

#20000
0!
0'

#25000
1!
1'

#30000
0!
0'

#35000
1!
1'

#40000
0!
0'

#45000
1!
1'

#50000
0!
0'

#55000
1!
1'

#60000
0!
0'

#65000
1!
1'

#70000
0!
0'

#75000
1!
1'

#80000
0!
0'

#85000
1!
1'

#90000
0!
0'

#95000
1!
1'

#100000
0!
0"
0'
0(

#105000
1!
1'

#110000
0!
0'

#115000
1!
1'

#120000
0!
0'

#125000
1!
1'

#130000
0!
0'

#135000
1!
1'

#140000
0!
0'

#145000
1!
1'

#150000
0!
0'

#155000
1!
1'

#160000
0!
0'

#165000
1!
1'

#170000
0!
0'

#175000
1!
1'

#180000
0!
0'

#185000
1!
1'

#190000
0!
0'

#195000
1!
1'

#200000
0!
0#
0'
0)
b1010101 ;

#205000
1!
1'
0-

#210000
0!
0'

#215000
1!
1'
0.
10

#220000
0!
0'

#225000
1!
1'
0/
00
b10 3

#230000
0!
0'

#235000
1!
1'
b1 6

#240000
0!
0'

#245000
1!
1'
b10 6

#250000
0!
0'

#255000
1!
1'
b11 6

#260000
0!
0'

#265000
1!
1'
b100 6

#270000
0!
0'

#275000
1!
1'
b101 6

#280000
0!
0'

#285000
1!
1'
b110 6

#290000
0!
0'

#295000
1!
1'
b111 6

#300000
0!
0'

#305000
1!
1'
b1000 6

#310000
0!
0'

#315000
1!
1'
b1001 6

#320000
0!
0'

#325000
1!
1'
b1010 6

#330000
0!
0'

#335000
1!
1'
b1011 6

#340000
0!
0'

#345000
1!
1'
b1100 6

#350000
0!
0'

#355000
1!
1'
b1101 6

#360000
0!
0'

#365000
1!
1'
b1110 6

#370000
0!
0'

#375000
1!
1'
b1111 6

#380000
0!
0'

#385000
1!
1'
b10000 6

#390000
0!
0'

#395000
1!
1'
b10001 6

#400000
0!
0'

#405000
1!
1'
b10010 6

#410000
0!
0'

#415000
1!
1'
b10011 6

#420000
0!
0'

#425000
1!
1'
b10100 6

#430000
0!
0'

#435000
1!
1'
b10101 6

#440000
0!
0'

#445000
1!
1'
b10110 6

#450000
0!
0'

#455000
1!
1'
b10111 6

#460000
0!
0'

#465000
1!
1'
b11000 6

#470000
0!
0'

#475000
1!
1'
b11001 6

#480000
0!
0'

#485000
1!
1'
b11010 6

#490000
0!
0'

#495000
1!
1'
b11011 6

#500000
0!
0'

#505000
1!
1'
b11100 6

#510000
0!
0'

#515000
1!
1'
b11101 6

#520000
0!
0'

#525000
1!
1'
b11110 6

#530000
0!
0'

#535000
1!
1'
b11111 6

#540000
0!
0'

#545000
1!
1'
b100000 6

#550000
0!
0'

#555000
1!
1'
b100001 6

#560000
0!
0'

#565000
1!
1'
b100010 6

#570000
0!
0'

#575000
1!
1'
b100011 6

#580000
0!
0'

#585000
1!
1'
b100100 6

#590000
0!
0'

#595000
1!
1'
b100101 6

#600000
0!
0'

#605000
1!
1'
b100110 6

#610000
0!
0'

#615000
1!
1'
b100111 6

#620000
0!
0'

#625000
1!
1'
b101000 6

#630000
0!
0'

#635000
1!
1'
b101001 6

#640000
0!
0'

#645000
1!
1'
b101010 6

#650000
0!
0'

#655000
1!
1'
b101011 6

#660000
0!
0'

#665000
1!
1'
b101100 6

#670000
0!
0'

#675000
1!
1'
b101101 6

#680000
0!
0'

#685000
1!
1'
b101110 6

#690000
0!
0'

#695000
1!
1'
b101111 6

#700000
0!
0'

#705000
1!
1'
b110000 6

#710000
0!
0'

#715000
1!
1'
b110001 6

#720000
0!
0'

#725000
1!
1'
b110010 6
17

#730000
0!
0'

#735000
1!
1'
12
b1 3
b110011 6
07
18

#740000
0!
0'

#745000
1!
1'
b1 :

#750000
0!
0'

#755000
1!
1'
b10 :

#760000
0!
0'

#765000
1!
1'
b11 :

#770000
0!
0'

#775000
1!
1'
b100 :

#780000
0!
0'

#785000
1!
1'
b101 :

#790000
0!
0'

#795000
1!
1'
b110 :

#800000
0!
0'

#805000
1!
1'
b111 :

#810000
0!
0'

#815000
1!
1'
b1000 :

#820000
0!
0'

#825000
1!
1'
b1001 :

#830000
0!
0'

#835000
1!
1'
b1010 :

#840000
0!
0'

#845000
1!
1'
b1011 :

#850000
0!
0'

#855000
1!
1'
b1100 :

#860000
0!
0'

#865000
1!
1'
b1101 :

#870000
0!
0'

#875000
1!
1'
b1110 :

#880000
0!
0'

#885000
1!
1'
b1111 :

#890000
0!
0'

#895000
1!
1'
b10000 :

#900000
0!
0'

#905000
1!
1'
b10001 :

#910000
0!
0'

#915000
1!
1'
b10010 :

#920000
0!
0'

#925000
1!
1'
b10011 :

#930000
0!
0'

#935000
1!
1'
b10100 :

#940000
0!
0'

#945000
1!
1'
b10101 :

#950000
0!
0'

#955000
1!
1'
b10110 :

#960000
0!
0'

#965000
1!
1'
b10111 :

#970000
0!
0'

#975000
1!
1'
b11000 :

#980000
0!
0'

#985000
1!
1'
b11001 :

#990000
0!
0'

#995000
1!
1'
b11010 :

#1000000
0!
0'

#1005000
1!
1'
b11011 :

#1010000
0!
0'

#1015000
1!
1'
b11100 :

#1020000
0!
0'

#1025000
1!
1'
b11101 :

#1030000
0!
0'

#1035000
1!
1'
b11110 :

#1040000
0!
0'

#1045000
1!
1'
b11111 :

#1050000
0!
0'

#1055000
1!
1'
b100000 :

#1060000
0!
0'

#1065000
1!
1'
b100001 :

#1070000
0!
0'

#1075000
1!
1'
b100010 :

#1080000
0!
0'

#1085000
1!
1'
b100011 :

#1090000
0!
0'

#1095000
1!
1'
b100100 :

#1100000
0!
0'

#1105000
1!
1'
b100101 :

#1110000
0!
0'

#1115000
1!
1'
b100110 :

#1120000
0!
0'

#1125000
1!
1'
b100111 :

#1130000
0!
0'

#1135000
1!
1'
b101000 :

#1140000
0!
0'

#1145000
1!
1'
b101001 :

#1150000
0!
0'

#1155000
1!
1'
b101010 :

#1160000
0!
0'

#1165000
1!
1'
b101011 :

#1170000
0!
0'

#1175000
1!
1'
b101100 :

#1180000
0!
0'

#1185000
1!
1'
b101101 :

#1190000
0!
0'

#1195000
1!
1'
b101110 :

#1200000
0!
1#
0'
1)
b0 <

#1205000
1!
1'
1-
b101111 :

#1210000
0!
0'

#1215000
1!
1'
1.
b110000 :

#1220000
0!
0'

#1225000
1!
1'
1/
b110001 :

#1230000
0!
0'

#1235000
1!
1'
b110010 :

#1240000
0!
0'

#1245000
1!
1'
b110011 :

#1250000
0!
0'

#1255000
1!
1'
b110100 :

#1260000
0!
0'

#1265000
1!
1'
b110101 :

#1270000
0!
0'

#1275000
1!
1'
b110110 :

#1280000
0!
0'

#1285000
1!
1'
b110111 :

#1290000
0!
0'

#1295000
1!
1'
b111000 :

#1300000
0!
0'

#1305000
1!
1'
b111001 :

#1310000
0!
0'

#1315000
1!
1'
b111010 :

#1320000
0!
0'

#1325000
1!
1'
b111011 :

#1330000
0!
0'

#1335000
1!
1'
b111100 :

#1340000
0!
0'

#1345000
1!
1'
b111101 :

#1350000
0!
0'

#1355000
1!
1'
b111110 :

#1360000
0!
0'

#1365000
1!
1'
b111111 :

#1370000
0!
0'

#1375000
1!
1'
b1000000 :

#1380000
0!
0'

#1385000
1!
1'
b1000001 :

#1390000
0!
0'

#1395000
1!
1'
b1000010 :

#1400000
0!
0'

#1405000
1!
1'
b1000011 :

#1410000
0!
0'

#1415000
1!
1'
b1000100 :

#1420000
0!
0'

#1425000
1!
1'
b1000101 :

#1430000
0!
0'

#1435000
1!
1'
b1000110 :

#1440000
0!
0'

#1445000
1!
1'
b1000111 :

#1450000
0!
0'

#1455000
1!
1'
b1001000 :

#1460000
0!
0'

#1465000
1!
1'
b1001001 :

#1470000
0!
0'

#1475000
1!
1'
b1001010 :

#1480000
0!
0'

#1485000
1!
1'
b1001011 :

#1490000
0!
0'

#1495000
1!
1'
b1001100 :

#1500000
0!
0'

#1505000
1!
1'
b1001101 :

#1510000
0!
0'

#1515000
1!
1'
b1001110 :

#1520000
0!
0'

#1525000
1!
1'
b1001111 :

#1530000
0!
0'

#1535000
1!
1'
b1010000 :

#1540000
0!
0'

#1545000
1!
1'
b1010001 :

#1550000
0!
0'

#1555000
1!
1'
b1010010 :

#1560000
0!
0'

#1565000
1!
1'
b1010011 :

#1570000
0!
0'

#1575000
1!
1'
b1010100 :

#1580000
0!
0'

#1585000
1!
1'
b1010101 :

#1590000
0!
0'

#1595000
1!
1'
b1010110 :

#1600000
0!
0'

#1605000
1!
1'
b1010111 :

#1610000
0!
0'

#1615000
1!
1'
b1011000 :

#1620000
0!
0'

#1625000
1!
1'
b1011001 :

#1630000
0!
0'

#1635000
1!
1'
b1011010 :

#1640000
0!
0'

#1645000
1!
1'
b1011011 :

#1650000
0!
0'

#1655000
1!
1'
b1011100 :

#1660000
0!
0'

#1665000
1!
1'
b1011101 :

#1670000
0!
0'

#1675000
1!
1'
b1011110 :

#1680000
0!
0'

#1685000
1!
1'
b1011111 :

#1690000
0!
0'

#1695000
1!
1'
b1100000 :

#1700000
0!
0'

#1705000
1!
1'
b1100001 :

#1710000
0!
0'

#1715000
1!
1'
b1100010 :

#1720000
0!
0'

#1725000
1!
1'
b1100011 :

#1730000
0!
0'

#1735000
1!
1'
19
b0 :

#1740000
0!
0'

#1745000
1!
1'
b1 :

#1750000
0!
0'

#1755000
1!
1'
b10 :

#1760000
0!
0'

#1765000
1!
1'
b11 :

#1770000
0!
0'

#1775000
1!
1'
b100 :

#1780000
0!
0'

#1785000
1!
1'
b101 :

#1790000
0!
0'

#1795000
1!
1'
b110 :

#1800000
0!
0'

#1805000
1!
1'
b111 :

#1810000
0!
0'

#1815000
1!
1'
b1000 :

#1820000
0!
0'

#1825000
1!
1'
b1001 :

#1830000
0!
0'

#1835000
1!
1'
b1010 :

#1840000
0!
0'

#1845000
1!
1'
b1011 :

#1850000
0!
0'

#1855000
1!
1'
b1100 :

#1860000
0!
0'

#1865000
1!
1'
b1101 :

#1870000
0!
0'

#1875000
1!
1'
b1110 :

#1880000
0!
0'

#1885000
1!
1'
b1111 :

#1890000
0!
0'

#1895000
1!
1'
b10000 :

#1900000
0!
0'

#1905000
1!
1'
b10001 :

#1910000
0!
0'

#1915000
1!
1'
b10010 :

#1920000
0!
0'

#1925000
1!
1'
b10011 :

#1930000
0!
0'

#1935000
1!
1'
b10100 :

#1940000
0!
0'

#1945000
1!
1'
b10101 :

#1950000
0!
0'

#1955000
1!
1'
b10110 :

#1960000
0!
0'

#1965000
1!
1'
b10111 :

#1970000
0!
0'

#1975000
1!
1'
b11000 :

#1980000
0!
0'

#1985000
1!
1'
b11001 :

#1990000
0!
0'

#1995000
1!
1'
b11010 :

#2000000
0!
0'

#2005000
1!
1'
b11011 :

#2010000
0!
0'

#2015000
1!
1'
b11100 :

#2020000
0!
0'

#2025000
1!
1'
b11101 :

#2030000
0!
0'

#2035000
1!
1'
b11110 :

#2040000
0!
0'

#2045000
1!
1'
b11111 :

#2050000
0!
0'

#2055000
1!
1'
b100000 :

#2060000
0!
0'

#2065000
1!
1'
b100001 :

#2070000
0!
0'

#2075000
1!
1'
b100010 :

#2080000
0!
0'

#2085000
1!
1'
b100011 :

#2090000
0!
0'

#2095000
1!
1'
b100100 :

#2100000
0!
0'

#2105000
1!
1'
b100101 :

#2110000
0!
0'

#2115000
1!
1'
b100110 :

#2120000
0!
0'

#2125000
1!
1'
b100111 :

#2130000
0!
0'

#2135000
1!
1'
b101000 :

#2140000
0!
0'

#2145000
1!
1'
b101001 :

#2150000
0!
0'

#2155000
1!
1'
b101010 :

#2160000
0!
0'

#2165000
1!
1'
b101011 :

#2170000
0!
0'

#2175000
1!
1'
b101100 :

#2180000
0!
0'

#2185000
1!
1'
b101101 :

#2190000
0!
0'

#2195000
1!
1'
b101110 :

#2200000
0!
0#
0'
0)
b1 <

#2205000
1!
1'
0-
b101111 :

#2210000
0!
0'

#2215000
1!
1'
0.
10
b110000 :

#2220000
0!
0'

#2225000
1!
1'
0/
00
b110001 :

#2230000
0!
0'

#2235000
1!
1'
b110010 :

#2240000
0!
0'

#2245000
1!
1'
b110011 :

#2250000
0!
0'

#2255000
1!
1'
b110100 :

#2260000
0!
0'

#2265000
1!
1'
b110101 :

#2270000
0!
0'

#2275000
1!
1'
b110110 :

#2280000
0!
0'

#2285000
1!
1'
b110111 :

#2290000
0!
0'

#2295000
1!
1'
b111000 :

#2300000
0!
0'

#2305000
1!
1'
b111001 :

#2310000
0!
0'

#2315000
1!
1'
b111010 :

#2320000
0!
0'

#2325000
1!
1'
b111011 :

#2330000
0!
0'

#2335000
1!
1'
b111100 :

#2340000
0!
0'

#2345000
1!
1'
b111101 :

#2350000
0!
0'

#2355000
1!
1'
b111110 :

#2360000
0!
0'

#2365000
1!
1'
b111111 :

#2370000
0!
0'

#2375000
1!
1'
b1000000 :

#2380000
0!
0'

#2385000
1!
1'
b1000001 :

#2390000
0!
0'

#2395000
1!
1'
b1000010 :

#2400000
0!
0'

#2405000
1!
1'
b1000011 :

#2410000
0!
0'

#2415000
1!
1'
b1000100 :

#2420000
0!
0'

#2425000
1!
1'
b1000101 :

#2430000
0!
0'

#2435000
1!
1'
b1000110 :

#2440000
0!
0'

#2445000
1!
1'
b1000111 :

#2450000
0!
0'

#2455000
1!
1'
b1001000 :

#2460000
0!
0'

#2465000
1!
1'
b1001001 :

#2470000
0!
0'

#2475000
1!
1'
b1001010 :

#2480000
0!
0'

#2485000
1!
1'
b1001011 :

#2490000
0!
0'

#2495000
1!
1'
b1001100 :

#2500000
0!
0'

#2505000
1!
1'
b1001101 :

#2510000
0!
0'

#2515000
1!
1'
b1001110 :

#2520000
0!
0'

#2525000
1!
1'
b1001111 :

#2530000
0!
0'

#2535000
1!
1'
b1010000 :

#2540000
0!
0'

#2545000
1!
1'
b1010001 :

#2550000
0!
0'

#2555000
1!
1'
b1010010 :

#2560000
0!
0'

#2565000
1!
1'
b1010011 :

#2570000
0!
0'

#2575000
1!
1'
b1010100 :

#2580000
0!
0'

#2585000
1!
1'
b1010101 :

#2590000
0!
0'

#2595000
1!
1'
b1010110 :

#2600000
0!
0'

#2605000
1!
1'
b1010111 :

#2610000
0!
0'

#2615000
1!
1'
b1011000 :

#2620000
0!
0'

#2625000
1!
1'
b1011001 :

#2630000
0!
0'

#2635000
1!
1'
b1011010 :

#2640000
0!
0'

#2645000
1!
1'
b1011011 :

#2650000
0!
0'

#2655000
1!
1'
b1011100 :

#2660000
0!
0'

#2665000
1!
1'
b1011101 :

#2670000
0!
0'

#2675000
1!
1'
b1011110 :

#2680000
0!
0'

#2685000
1!
1'
b1011111 :

#2690000
0!
0'

#2695000
1!
1'
b1100000 :

#2700000
0!
0'

#2705000
1!
1'
b1100001 :

#2710000
0!
0'

#2715000
1!
1'
b1100010 :

#2720000
0!
0'

#2725000
1!
1'
11
b1100011 :

#2730000
0!
0'

#2735000
1!
1'
01
b11 3
09
b0 :

#2740000
0!
0'

#2745000
1!
1'
b1 :

#2750000
0!
0'

#2755000
1!
1'
b10 :

#2760000
0!
0'

#2765000
1!
1'
b11 :

#2770000
0!
0'

#2775000
1!
1'
b100 :

#2780000
0!
0'

#2785000
1!
1'
b101 :

#2790000
0!
0'

#2795000
1!
1'
b110 :

#2800000
0!
0'

#2805000
1!
1'
b111 :

#2810000
0!
0'

#2815000
1!
1'
b1000 :

#2820000
0!
0'

#2825000
1!
1'
b1001 :

#2830000
0!
0'

#2835000
1!
1'
b1010 :

#2840000
0!
0'

#2845000
1!
1'
b1011 :

#2850000
0!
0'

#2855000
1!
1'
b1100 :

#2860000
0!
0'

#2865000
1!
1'
b1101 :

#2870000
0!
0'

#2875000
1!
1'
b1110 :

#2880000
0!
0'

#2885000
1!
1'
b1111 :

#2890000
0!
0'

#2895000
1!
1'
b10000 :

#2900000
0!
0'

#2905000
1!
1'
b10001 :

#2910000
0!
0'

#2915000
1!
1'
b10010 :

#2920000
0!
0'

#2925000
1!
1'
b10011 :

#2930000
0!
0'

#2935000
1!
1'
b10100 :

#2940000
0!
0'

#2945000
1!
1'
b10101 :

#2950000
0!
0'

#2955000
1!
1'
b10110 :

#2960000
0!
0'

#2965000
1!
1'
b10111 :

#2970000
0!
0'

#2975000
1!
1'
b11000 :

#2980000
0!
0'

#2985000
1!
1'
b11001 :

#2990000
0!
0'

#2995000
1!
1'
b11010 :

#3000000
0!
0'

#3005000
1!
1'
b11011 :

#3010000
0!
0'

#3015000
1!
1'
b11100 :

#3020000
0!
0'

#3025000
1!
1'
b11101 :

#3030000
0!
0'

#3035000
1!
1'
b11110 :

#3040000
0!
0'

#3045000
1!
1'
b11111 :

#3050000
0!
0'

#3055000
1!
1'
b100000 :

#3060000
0!
0'

#3065000
1!
1'
b100001 :

#3070000
0!
0'

#3075000
1!
1'
b100010 :

#3080000
0!
0'

#3085000
1!
1'
b100011 :

#3090000
0!
0'

#3095000
1!
1'
b100100 :

#3100000
0!
0'

#3105000
1!
1'
b100101 :

#3110000
0!
0'

#3115000
1!
1'
b100110 :

#3120000
0!
0'

#3125000
1!
1'
b100111 :

#3130000
0!
0'

#3135000
1!
1'
b101000 :

#3140000
0!
0'

#3145000
1!
1'
b101001 :

#3150000
0!
0'

#3155000
1!
1'
b101010 :

#3160000
0!
0'

#3165000
1!
1'
b101011 :

#3170000
0!
0'

#3175000
1!
1'
b101100 :

#3180000
0!
0'

#3185000
1!
1'
b101101 :

#3190000
0!
0'

#3195000
1!
1'
b101110 :

#3200000
0!
1#
0'
1)
b10 <

#3205000
1!
1'
1-
b101111 :

#3210000
0!
0'

#3215000
1!
1'
1.
b110000 :

#3220000
0!
0'

#3225000
1!
1'
1/
b110001 :

#3230000
0!
0'

#3235000
1!
1'
b110010 :

#3240000
0!
0'

#3245000
1!
1'
b110011 :

#3250000
0!
0'

#3255000
1!
1'
b110100 :

#3260000
0!
0'

#3265000
1!
1'
b110101 :

#3270000
0!
0'

#3275000
1!
1'
b110110 :

#3280000
0!
0'

#3285000
1!
1'
b110111 :

#3290000
0!
0'

#3295000
1!
1'
b111000 :

#3300000
0!
0'

#3305000
1!
1'
b111001 :

#3310000
0!
0'

#3315000
1!
1'
b111010 :

#3320000
0!
0'

#3325000
1!
1'
b111011 :

#3330000
0!
0'

#3335000
1!
1'
b111100 :

#3340000
0!
0'

#3345000
1!
1'
b111101 :

#3350000
0!
0'

#3355000
1!
1'
b111110 :

#3360000
0!
0'

#3365000
1!
1'
b111111 :

#3370000
0!
0'

#3375000
1!
1'
b1000000 :

#3380000
0!
0'

#3385000
1!
1'
b1000001 :

#3390000
0!
0'

#3395000
1!
1'
b1000010 :

#3400000
0!
0'

#3405000
1!
1'
b1000011 :

#3410000
0!
0'

#3415000
1!
1'
b1000100 :

#3420000
0!
0'

#3425000
1!
1'
b1000101 :

#3430000
0!
0'

#3435000
1!
1'
b1000110 :

#3440000
0!
0'

#3445000
1!
1'
b1000111 :

#3450000
0!
0'

#3455000
1!
1'
b1001000 :

#3460000
0!
0'

#3465000
1!
1'
b1001001 :

#3470000
0!
0'

#3475000
1!
1'
b1001010 :

#3480000
0!
0'

#3485000
1!
1'
b1001011 :

#3490000
0!
0'

#3495000
1!
1'
b1001100 :

#3500000
0!
0'

#3505000
1!
1'
b1001101 :

#3510000
0!
0'

#3515000
1!
1'
b1001110 :

#3520000
0!
0'

#3525000
1!
1'
b1001111 :

#3530000
0!
0'

#3535000
1!
1'
b1010000 :

#3540000
0!
0'

#3545000
1!
1'
b1010001 :

#3550000
0!
0'

#3555000
1!
1'
b1010010 :

#3560000
0!
0'

#3565000
1!
1'
b1010011 :

#3570000
0!
0'

#3575000
1!
1'
b1010100 :

#3580000
0!
0'

#3585000
1!
1'
b1010101 :

#3590000
0!
0'

#3595000
1!
1'
b1010110 :

#3600000
0!
0'

#3605000
1!
1'
b1010111 :

#3610000
0!
0'

#3615000
1!
1'
b1011000 :

#3620000
0!
0'

#3625000
1!
1'
b1011001 :

#3630000
0!
0'

#3635000
1!
1'
b1011010 :

#3640000
0!
0'

#3645000
1!
1'
b1011011 :

#3650000
0!
0'

#3655000
1!
1'
b1011100 :

#3660000
0!
0'

#3665000
1!
1'
b1011101 :

#3670000
0!
0'

#3675000
1!
1'
b1011110 :

#3680000
0!
0'

#3685000
1!
1'
b1011111 :

#3690000
0!
0'

#3695000
1!
1'
b1100000 :

#3700000
0!
0'

#3705000
1!
1'
b1100001 :

#3710000
0!
0'

#3715000
1!
1'
b1100010 :

#3720000
0!
0'

#3725000
1!
1'
b1100011 :

#3730000
0!
0'

#3735000
1!
1'
19
b0 :

#3740000
0!
0'

#3745000
1!
1'
b1 :

#3750000
0!
0'

#3755000
1!
1'
b10 :

#3760000
0!
0'

#3765000
1!
1'
b11 :

#3770000
0!
0'

#3775000
1!
1'
b100 :

#3780000
0!
0'

#3785000
1!
1'
b101 :

#3790000
0!
0'

#3795000
1!
1'
b110 :

#3800000
0!
0'

#3805000
1!
1'
b111 :

#3810000
0!
0'

#3815000
1!
1'
b1000 :

#3820000
0!
0'

#3825000
1!
1'
b1001 :

#3830000
0!
0'

#3835000
1!
1'
b1010 :

#3840000
0!
0'

#3845000
1!
1'
b1011 :

#3850000
0!
0'

#3855000
1!
1'
b1100 :

#3860000
0!
0'

#3865000
1!
1'
b1101 :

#3870000
0!
0'

#3875000
1!
1'
b1110 :

#3880000
0!
0'

#3885000
1!
1'
b1111 :

#3890000
0!
0'

#3895000
1!
1'
b10000 :

#3900000
0!
0'

#3905000
1!
1'
b10001 :

#3910000
0!
0'

#3915000
1!
1'
b10010 :

#3920000
0!
0'

#3925000
1!
1'
b10011 :

#3930000
0!
0'

#3935000
1!
1'
b10100 :

#3940000
0!
0'

#3945000
1!
1'
b10101 :

#3950000
0!
0'

#3955000
1!
1'
b10110 :

#3960000
0!
0'

#3965000
1!
1'
b10111 :

#3970000
0!
0'

#3975000
1!
1'
b11000 :

#3980000
0!
0'

#3985000
1!
1'
b11001 :

#3990000
0!
0'

#3995000
1!
1'
b11010 :

#4000000
0!
0'

#4005000
1!
1'
b11011 :

#4010000
0!
0'

#4015000
1!
1'
b11100 :

#4020000
0!
0'

#4025000
1!
1'
b11101 :

#4030000
0!
0'

#4035000
1!
1'
b11110 :

#4040000
0!
0'

#4045000
1!
1'
b11111 :

#4050000
0!
0'

#4055000
1!
1'
b100000 :

#4060000
0!
0'

#4065000
1!
1'
b100001 :

#4070000
0!
0'

#4075000
1!
1'
b100010 :

#4080000
0!
0'

#4085000
1!
1'
b100011 :

#4090000
0!
0'

#4095000
1!
1'
b100100 :

#4100000
0!
0'

#4105000
1!
1'
b100101 :

#4110000
0!
0'

#4115000
1!
1'
b100110 :

#4120000
0!
0'

#4125000
1!
1'
b100111 :

#4130000
0!
0'

#4135000
1!
1'
b101000 :

#4140000
0!
0'

#4145000
1!
1'
b101001 :

#4150000
0!
0'

#4155000
1!
1'
b101010 :

#4160000
0!
0'

#4165000
1!
1'
b101011 :

#4170000
0!
0'

#4175000
1!
1'
b101100 :

#4180000
0!
0'

#4185000
1!
1'
b101101 :

#4190000
0!
0'

#4195000
1!
1'
b101110 :

#4200000
0!
0#
0'
0)
b11 <

#4205000
1!
1'
0-
b101111 :

#4210000
0!
0'

#4215000
1!
1'
0.
10
b110000 :

#4220000
0!
0'

#4225000
1!
1'
0/
00
b110001 :

#4230000
0!
0'

#4235000
1!
1'
b110010 :

#4240000
0!
0'

#4245000
1!
1'
b110011 :

#4250000
0!
0'

#4255000
1!
1'
b110100 :

#4260000
0!
0'

#4265000
1!
1'
b110101 :

#4270000
0!
0'

#4275000
1!
1'
b110110 :

#4280000
0!
0'

#4285000
1!
1'
b110111 :

#4290000
0!
0'

#4295000
1!
1'
b111000 :

#4300000
0!
0'

#4305000
1!
1'
b111001 :

#4310000
0!
0'

#4315000
1!
1'
b111010 :

#4320000
0!
0'

#4325000
1!
1'
b111011 :

#4330000
0!
0'

#4335000
1!
1'
b111100 :

#4340000
0!
0'

#4345000
1!
1'
b111101 :

#4350000
0!
0'

#4355000
1!
1'
b111110 :

#4360000
0!
0'

#4365000
1!
1'
b111111 :

#4370000
0!
0'

#4375000
1!
1'
b1000000 :

#4380000
0!
0'

#4385000
1!
1'
b1000001 :

#4390000
0!
0'

#4395000
1!
1'
b1000010 :

#4400000
0!
0'

#4405000
1!
1'
b1000011 :

#4410000
0!
0'

#4415000
1!
1'
b1000100 :

#4420000
0!
0'

#4425000
1!
1'
b1000101 :

#4430000
0!
0'

#4435000
1!
1'
b1000110 :

#4440000
0!
0'

#4445000
1!
1'
b1000111 :

#4450000
0!
0'

#4455000
1!
1'
b1001000 :

#4460000
0!
0'

#4465000
1!
1'
b1001001 :

#4470000
0!
0'

#4475000
1!
1'
b1001010 :

#4480000
0!
0'

#4485000
1!
1'
b1001011 :

#4490000
0!
0'

#4495000
1!
1'
b1001100 :

#4500000
0!
0'

#4505000
1!
1'
b1001101 :

#4510000
0!
0'

#4515000
1!
1'
b1001110 :

#4520000
0!
0'

#4525000
1!
1'
b1001111 :

#4530000
0!
0'

#4535000
1!
1'
b1010000 :

#4540000
0!
0'

#4545000
1!
1'
b1010001 :

#4550000
0!
0'

#4555000
1!
1'
b1010010 :

#4560000
0!
0'

#4565000
1!
1'
b1010011 :

#4570000
0!
0'

#4575000
1!
1'
b1010100 :

#4580000
0!
0'

#4585000
1!
1'
b1010101 :

#4590000
0!
0'

#4595000
1!
1'
b1010110 :

#4600000
0!
0'

#4605000
1!
1'
b1010111 :

#4610000
0!
0'

#4615000
1!
1'
b1011000 :

#4620000
0!
0'

#4625000
1!
1'
b1011001 :

#4630000
0!
0'

#4635000
1!
1'
b1011010 :

#4640000
0!
0'

#4645000
1!
1'
b1011011 :

#4650000
0!
0'

#4655000
1!
1'
b1011100 :

#4660000
0!
0'

#4665000
1!
1'
b1011101 :

#4670000
0!
0'

#4675000
1!
1'
b1011110 :

#4680000
0!
0'

#4685000
1!
1'
b1011111 :

#4690000
0!
0'

#4695000
1!
1'
b1100000 :

#4700000
0!
0'

#4705000
1!
1'
b1100001 :

#4710000
0!
0'

#4715000
1!
1'
b1100010 :

#4720000
0!
0'

#4725000
1!
1'
11
b1100011 :

#4730000
0!
0'

#4735000
1!
1'
01
b1 4
09
b0 :

#4740000
0!
0'

#4745000
1!
1'
b1 :

#4750000
0!
0'

#4755000
1!
1'
b10 :

#4760000
0!
0'

#4765000
1!
1'
b11 :

#4770000
0!
0'

#4775000
1!
1'
b100 :

#4780000
0!
0'

#4785000
1!
1'
b101 :

#4790000
0!
0'

#4795000
1!
1'
b110 :

#4800000
0!
0'

#4805000
1!
1'
b111 :

#4810000
0!
0'

#4815000
1!
1'
b1000 :

#4820000
0!
0'

#4825000
1!
1'
b1001 :

#4830000
0!
0'

#4835000
1!
1'
b1010 :

#4840000
0!
0'

#4845000
1!
1'
b1011 :

#4850000
0!
0'

#4855000
1!
1'
b1100 :

#4860000
0!
0'

#4865000
1!
1'
b1101 :

#4870000
0!
0'

#4875000
1!
1'
b1110 :

#4880000
0!
0'

#4885000
1!
1'
b1111 :

#4890000
0!
0'

#4895000
1!
1'
b10000 :

#4900000
0!
0'

#4905000
1!
1'
b10001 :

#4910000
0!
0'

#4915000
1!
1'
b10010 :

#4920000
0!
0'

#4925000
1!
1'
b10011 :

#4930000
0!
0'

#4935000
1!
1'
b10100 :

#4940000
0!
0'

#4945000
1!
1'
b10101 :

#4950000
0!
0'

#4955000
1!
1'
b10110 :

#4960000
0!
0'

#4965000
1!
1'
b10111 :

#4970000
0!
0'

#4975000
1!
1'
b11000 :

#4980000
0!
0'

#4985000
1!
1'
b11001 :

#4990000
0!
0'

#4995000
1!
1'
b11010 :

#5000000
0!
0'

#5005000
1!
1'
b11011 :

#5010000
0!
0'

#5015000
1!
1'
b11100 :

#5020000
0!
0'

#5025000
1!
1'
b11101 :

#5030000
0!
0'

